﻿TLR - Precision;TLR - Recall;TLR - Fmeasure;TLR;LORE - Precision;LORE - Recall;LORE - Fmeasure;LORE;METRA - Precision;METRA - Recall;METRA - Fmeasure;METRA;METRA+LORE - Precision;METRA+LORE - Recall;METRA+LORE - Fmeasure;METRA+LORE
54,82;39,83;48,66;0,23;76,11;51,4;74,31;0,71;71,89;70,47;75,15;0,62;80,82;67,82;70,9;0,64
67,13;54,54;65,76;0,31;75,78;40,91;46,1;0,48;72,68;76,65;64,1;0,55;73,81;80,06;72,19;0,63
54,93;41,77;51,32;0,26;85,35;49,21;73,36;0,61;73,3;82,5;68,11;0,63;75,88;74,75;78,97;0,62
58,4;57,41;54,39;0,31;67,28;55,3;71,09;0,53;73,56;70,93;74,2;0,61;74,89;78,07;75,31;0,68
71,54;54,44;49,59;0,33;66,85;51,53;49,79;0,53;73,39;77,44;72,63;0,66;79,21;77,87;76,54;0,67
50,23;58,7;50,59;0,26;80,86;50,63;69,59;0,71;77,65;65,67;71,2;0,65;77,15;81,41;81,28;0,65
61,32;42,98;47,19;0,37;74,25;51,6;57,43;0,67;77,04;74,99;77,29;0,71;78,31;74,07;79,94;0,75
58,44;45,22;40,85;0,31;56,08;47,34;51,06;0,58;71,86;75,52;75,36;0,63;79,6;73,7;73,05;0,67
35,14;57,19;51,13;0,31;71,32;56,7;66,75;0,6;75,96;64,24;75,69;0,57;76,06;68,89;72,7;0,63
65,67;55,41;56,05;0,27;71,17;46,77;58,7;0,57;75,45;64,27;73,09;0,61;77,28;77,06;77,91;0,69
75,33;46,12;49,17;0,38;85,65;49,68;50,09;0,44;73,13;77,49;74,51;0,68;80,42;76,51;75,43;0,69
64,81;41,92;59,26;0,28;74,22;49,12;56,72;0,66;75,66;77,95;65,18;0,62;81,89;74,25;68,87;0,62
65,86;45,77;52,99;0,29;68,46;49,03;72,62;0,68;81,8;70,97;71,67;0,6;81,5;68,8;77,61;0,68
63,2;58,75;50,07;0,32;69,54;55,57;73,18;0,48;69,75;69,4;68,43;0,63;74,14;74,05;80,72;0,7
71,72;25,83;37,39;0,33;81,07;48,43;84,93;0,68;78,02;72,48;69,34;0,67;81,28;79,48;76,7;0,64
60,55;43,57;55,64;0,27;82,75;50,94;64,77;0,62;73,89;69,07;68,75;0,62;81,62;71,35;74,7;0,66
51,59;53,77;59,26;0,3;79,04;45,77;46,03;0,64;68,68;72,57;68,62;0,65;80,83;73,85;76,24;0,65
57,32;64,78;42,7;0,3;88,3;54,35;57,57;0,59;70,37;76,09;72,04;0,61;77,09;74,98;73,46;0,61
68,5;44,53;63,82;0,27;91,58;62,65;59,34;0,57;75,66;69,2;71,85;0,52;81,73;72,94;77,81;0,67
56,48;46,86;62,17;0,29;86,81;38,46;68,79;0,85;70,72;70,86;73,31;0,67;77,4;68,43;76,2;0,67
64,1;30,38;46,01;0,31;86,93;49,14;68,65;0,67;74,72;64,92;71,88;0,64;78,64;82;78,75;0,66
56,64;59,06;48,92;0,34;91,34;53,28;68,43;0,59;75,34;70,39;70,65;0,69;80,79;79,01;77,67;0,71
47,47;35,34;54,31;0,33;72,98;48,17;63,83;0,6;70,01;69,77;77,71;0,66;81,03;74,24;77,35;0,64
55,11;48,66;43,25;0,3;78,91;52,12;50,49;0,49;77,21;73,37;71,86;0,71;79,34;71,63;78,6;0,67
58,44;63,2;47,13;0,31;86,73;43,04;69,72;0,55;74,29;68,49;80,47;0,65;77,74;83,97;76,39;0,7
50,51;49,45;57,79;0,28;74,66;43,17;74,44;0,75;76,71;66,58;65,63;0,64;79,07;75,03;75,33;0,61
52,61;42,51;41,2;0,36;75,29;37,99;63,25;0,6;76,34;77,4;74,85;0,59;81,69;72,81;79,39;0,71
53,01;46,51;44,77;0,33;88,45;46,58;65,11;0,62;72,3;73,57;77,45;0,66;79,62;76,71;75,78;0,69
47,33;36,63;50,46;0,34;81,42;54,01;49,99;0,64;72,6;73,36;68,94;0,66;78,15;74,61;73,52;0,73
62,47;38,17;59,96;0,24;82,3;52,97;49,84;0,76;74,21;71,25;73,18;0,61;79,15;76,34;73,18;0,69
55,2;54,99;51,05;0,26;83,6;47,66;66,29;0,66;78,35;78,78;73,42;0,6;72,76;76,5;74,7;0,75
56,62;53,81;52,93;0,33;91,14;63,32;71,13;0,74;72,87;74,63;71,57;0,65;81,16;69,87;75,39;0,68
58,12;51,84;44,52;0,34;89,6;38,5;65,05;0,65;78,14;67,79;69,71;0,63;78,02;75,13;79,59;0,62
59,77;41,86;49,57;0,29;99,63;51,33;67,28;0,83;74,11;73,04;71,47;0,58;83,37;70,67;76,06;0,64
55,8;40,56;48,06;0,25;62,75;61,5;80,89;0,61;80,04;66,11;81,45;0,56;82,81;68,62;77,6;0,67
61,18;47,69;48,39;0,33;81,97;41,01;67,41;0,53;74,15;72,55;71,23;0,67;79,02;74,39;73,69;0,63
68,29;45,13;49,52;0,25;80,27;56,21;64,94;0,67;71,27;70,28;71,52;0,59;74,63;69,61;75,3;0,64
56,83;49,44;43,26;0,3;78,37;51,02;63,15;0,64;79,27;75,21;72,13;0,63;79,68;76,55;78,95;0,63
70,92;41,57;57,73;0,34;88,14;39,96;74,61;0,59;73,01;76,21;77,82;0,66;75,91;75,11;76,43;0,68
62,54;57,93;57,37;0,37;87,22;61,23;66,44;0,71;73,53;69,67;73,75;0,55;77,24;79,44;77,58;0,65
52,04;41,63;47,69;0,3;92,18;51,82;72,8;0,76;79,76;70,59;74,31;0,7;75,79;75,83;76,28;0,69
59,26;44,62;47,98;0,31;80,32;52,35;64,24;0,53;75,05;68;73,41;0,65;80,57;71,86;73,18;0,69
57,67;52,9;64,35;0,31;88,32;45,98;75,13;0,67;76,96;70,66;69,25;0,6;76,98;78,35;77,57;0,66
68,01;47,28;57,07;0,36;63,65;53,41;81,34;0,51;75,53;67,82;72,82;0,56;79,92;75,47;75,89;0,64
53,38;33,35;49,74;0,28;76,39;43,76;60,38;0,58;73,71;73,36;70,26;0,62;79,34;71,1;76,37;0,67
57,65;54,73;49,42;0,34;81,18;43,31;59,34;0,55;74,33;70,81;69,5;0,66;78,87;75,69;74,29;0,66
52,74;32,1;51,57;0,28;73,39;50,13;68,89;0,56;79,4;69,61;75,67;0,6;74,01;73,15;83,46;0,67
77,89;41,94;44,64;0,3;90,51;45,42;77,55;0,56;76,9;71,42;69,51;0,65;81,18;70,19;70,04;0,63
65,07;40,36;40,84;0,31;75,22;60,03;67,97;0,63;68,99;73,11;80,67;0,63;78,67;71,32;75,49;0,62
57,32;56,94;47,68;0,32;74,79;42,51;71,82;0,62;72,76;75,06;75,32;0,63;76,15;81,59;81,82;0,62
62,09;30,46;49,34;0,34;79,17;55,65;60,06;0,46;77,55;77,01;72,25;0,59;80,54;75,34;80,64;0,66
54,86;39,79;49,61;0,3;77,26;47,74;67,63;0,57;84,69;73,27;75,18;0,63;83,57;74,7;74,9;0,65
66,98;59,63;45,72;0,29;87,59;52,95;77,93;0,63;79,9;65,98;72,28;0,57;81,39;76,17;78,2;0,63
67,26;48,37;50,54;0,28;70,67;47,46;85,12;0,65;77,15;74,86;74,53;0,62;77,04;76,99;71,04;0,59
46,73;47,72;52,24;0,29;86,42;57,76;73,33;0,75;75,11;77,24;66,96;0,64;77,76;70,78;74,62;0,61
72,78;54,44;55,28;0,29;65,11;44,2;79,62;0,51;68,93;66,56;71,61;0,64;78,59;76,72;80,51;0,67
63,6;52,02;41,37;0,32;82,25;62,55;69,73;0,59;70,64;66,38;72,4;0,72;76,98;76,76;72,87;0,7
67,34;45,52;49,87;0,32;79,97;41,1;54,36;0,75;78,77;71,7;75,5;0,62;75,17;77,81;74,95;0,67
55,55;36,14;36,91;0,32;83,15;38,27;82,25;0,74;70;66,66;70,19;0,67;76,13;73,39;80,07;0,68
50,57;58,44;37,38;0,36;61,21;39,24;56,37;0,53;72,19;72,07;76,42;0,59;75,89;72,44;79,14;0,69
72,94;52,52;55,69;0,32;65,87;55,45;77,41;0,62;74,25;67,62;77,13;0,63;79,07;75,78;75,27;0,71
61,91;44,15;39,2;0,26;83,36;54,5;66,36;0,65;68,17;75,01;65,7;0,58;79,36;78,33;80,11;0,64
58,39;54,51;61,21;0,37;74,81;53,42;54,97;0,54;74,86;70,73;70,36;0,66;79,65;72,89;74,38;0,68
41,51;40,65;65,32;0,26;97,08;59,62;59,23;0,49;72,91;70,68;75,01;0,69;80,46;73,24;77,04;0,63
58,75;53,44;51,63;0,34;85,5;44,84;59,91;0,62;77,86;70,24;75,49;0,59;79,07;73,48;77,2;0,61
63,26;55,61;54,44;0,31;88,09;78,28;73,99;0,52;76,14;74,65;69,68;0,66;80,4;66,19;69,08;0,63
49,35;46,8;44,29;0,28;74,55;52,04;60,11;0,65;74,73;77,06;73,69;0,58;76,19;72,31;79,1;0,63
49,94;31,81;55,61;0,31;61,1;48,61;61,27;0,59;70,7;72,27;71,29;0,6;79,4;79,78;74,42;0,64
61,42;36,62;39,89;0,32;79,17;47,68;75,43;0,54;71,55;73,62;70,77;0,65;76,69;69,98;74;0,72
61,05;49,93;56,66;0,32;92,12;59,89;62,28;0,51;77,78;74,98;69,03;0,66;81,24;79,79;72,34;0,65
48,34;32,01;38,5;0,29;90,48;56,65;80,75;0,59;75,85;71,9;72,83;0,61;79,91;70,86;73,42;0,66
68,8;48,94;53,1;0,29;71,62;57,97;68,9;0,6;78,05;69,18;70,65;0,57;78,28;72,69;71,92;0,66
56,3;60,72;33,19;0,28;82,94;48,48;50,6;0,54;70,45;57,42;71,75;0,68;78,16;73,44;74,59;0,69
60,93;38,77;62,99;0,33;76,97;62,53;69,7;0,51;69,8;78,67;74,28;0,6;78,96;74,9;73,45;0,67
65,37;25,92;64,52;0,35;90,73;50,53;76,81;0,49;74,34;72,22;75,35;0,6;81,96;71,14;73,59;0,63
63,36;51,37;48,13;0,36;86,2;70,05;79,03;0,69;77,36;71,66;72,04;0,62;81,07;74,44;75,09;0,67
65,19;41,62;49,77;0,28;78,09;62,11;60,43;0,61;72,28;64,16;70,86;0,61;81,58;74,89;79,34;0,63
61,7;53,31;40,53;0,35;85,37;54,12;73,55;0,61;69,94;64,42;70,74;0,66;81,3;78,96;73,04;0,63
53,1;41,27;64,61;0,27;63,76;52,39;74,45;0,46;70,94;75,62;75,34;0,63;77,83;80,98;74,43;0,67
56,9;55,78;49,46;0,32;95,83;54,56;45,06;0,52;77,39;70,89;78,07;0,63;80,55;74,08;70,27;0,68
54,82;47,07;50,63;0,34;82,96;43,25;61,95;0,6;80,23;75,62;67,06;0,63;78,31;71,6;71,05;0,66
57,61;60,25;47,27;0,33;70,3;49,22;78,3;0,57;77,1;65,42;66,15;0,61;79,17;74,3;78,06;0,65
62,57;28,34;55,22;0,3;83,82;46,58;61,18;0,44;66,49;70,75;66,84;0,65;81,84;77,01;79,69;0,68
62,76;40,67;62,12;0,31;85,83;55,08;76,66;0,54;67,28;72,87;73,55;0,62;81,51;67,92;75,58;0,61
43,47;45,99;74,46;0,31;76,35;56,92;67,61;0,52;67,41;66,92;70,12;0,64;77,25;67,99;72,94;0,67
60,38;35,85;48,37;0,25;79,51;53,82;46,22;0,67;70,97;67,6;75,44;0,64;81,4;71,54;72,47;0,63
47,73;54,38;48,44;0,33;75,21;47,52;71,76;0,79;73,79;63,74;72,42;0,67;79,1;72,55;77,53;0,65
50,28;52,55;44,5;0,3;82,45;41,83;59,73;0,71;77,05;68,55;72,65;0,64;78,49;76,83;74,38;0,72
62,11;44,85;51,03;0,31;84,23;38,8;61,03;0,72;75,03;76,84;74,79;0,59;82,85;80,78;76,93;0,64
56,26;48,51;50,85;0,31;70,33;39,36;55,9;0,54;69,17;68,08;67,3;0,68;80;83,97;76,3;0,68
46,89;44,19;55,15;0,33;73,45;48,01;41,87;0,57;68,66;73,84;73,32;0,6;81,17;71,57;78;0,67
56,66;43,99;46,71;0,26;74,16;57,91;84,71;0,69;80,34;71,19;73,66;0,63;84,45;64,36;72,4;0,68
58,21;36,4;56,13;0,29;74,53;54,18;68,82;0,61;71,76;66,69;71,32;0,62;82,51;72,76;76,08;0,61
56,36;47,73;60,34;0,34;76,99;60,31;66,32;0,6;73,74;70,15;72,66;0,62;78,63;80,26;75,73;0,66
69,59;58,86;55,42;0,32;80,03;50,78;70,78;0,6;75,96;69,81;65,42;0,69;77,5;75,74;71,28;0,66
55,73;55,33;48,03;0,3;69,43;53,17;67,91;0,63;73,42;74,82;73,56;0,66;79,2;71,4;75,53;0,63
56,26;52,96;60,05;0,38;79,77;53,79;69,87;0,67;69,05;74,18;65,55;0,66;84,07;79,94;73,06;0,69
50,06;47,1;44,2;0,31;74,77;50,43;78,09;0,65;75,94;68,46;66,91;0,57;77,82;73,97;77,64;0,64
58,55;40,23;47,47;0,32;77,52;58,58;62,08;0,66;68,59;68,96;75,25;0,66;82,81;77,18;77,49;0,61
53,91;58,78;47,12;0,27;84,64;44,46;64,75;0,51;80,07;64,99;75,74;0,67;77,97;75,05;76,58;0,65
52,27;48,71;57,68;0,32;72,53;58,57;69,9;0,7;76,23;74,74;71,94;0,58;79,9;76,63;75,58;0,7
60,54;51,14;48,52;0,33;83,31;75,55;56,45;0,64;71,86;72,36;79,31;0,66;77,66;71,76;71,78;0,67
54,87;39,58;56,99;0,32;78;59,26;55,52;0,61;73,43;71,43;69,15;0,62;75,92;70,08;79,86;0,72
61,7;41,79;41,31;0,29;69,71;54,95;53,34;0,72;76,6;75,56;70,28;0,63;75,63;69,61;75,59;0,67
67,85;36,87;45,81;0,33;76,52;58,29;68,65;0,51;76,46;83,62;75,07;0,61;77,7;73,1;79,04;0,69
71,75;42,73;52,32;0,27;88,34;43,43;63,75;0,77;72,31;63,12;69,96;0,63;77,71;69,07;75,04;0,71
66,14;52,32;61,43;0,32;95,09;38,93;80,5;0,53;76,34;70,72;70,25;0,61;78,21;68,8;72,83;0,66
69,23;41,69;56,92;0,24;91,53;55,33;62,58;0,69;73,43;73,03;71,56;0,61;75,97;73,05;74,61;0,63
66,81;42,69;57,41;0,35;85,48;41,08;57,91;0,5;83,5;74,05;66,55;0,63;78,27;68,14;78,06;0,67
48,9;57,51;48,14;0,28;78,88;52,74;65,93;0,62;73,78;72,57;74,52;0,66;78,27;77,65;75,63;0,68
46,17;51,77;39,56;0,33;74,71;53,19;70,1;0,54;69,72;65,62;72,07;0,65;79,51;73,29;78,5;0,69
60,18;53,43;49,17;0,33;76,91;50,56;63,08;0,63;74,94;70,23;75,09;0,66;78,45;73,69;72,95;0,69
52,3;34,82;60,39;0,4;70,86;57,64;46,58;0,64;75,34;72,48;76,61;0,59;79,24;78,68;76,94;0,67
59,27;32,04;55,12;0,34;88,92;45,61;46,36;0,47;66,85;71,01;76,21;0,64;81,41;71,99;72,77;0,68
58,87;40,58;57,41;0,29;84,17;57,47;64,66;0,59;75,3;79,11;72,63;0,7;82,1;76,85;76,08;0,66
69,79;62,08;39,18;0,38;90,01;51,57;60,44;0,55;71,03;68,72;68,97;0,63;78,22;71,06;69,36;0,65
46,09;57,31;56,62;0,24;87,43;65,92;62,89;0,61;76,07;66,45;67,74;0,58;80,48;67,25;75,07;0,6
53,84;54,3;41,89;0,32;62,07;36,35;66,37;0,68;71,75;76,69;72,8;0,62;73,36;83,12;75,49;0,62
45,05;45,11;45,61;0,3;94,73;46,44;63,65;0,75;76,73;72,53;68,15;0,57;78,46;68,95;79,72;0,64
60,44;49,5;71,38;0,37;86,62;52,45;73,89;0,66;70,24;66,59;75,53;0,64;76,49;69,65;73,89;0,67
62,02;46,12;53,69;0,3;72,96;47,27;63,44;0,61;73,09;70,34;75,86;0,6;74,4;71,61;77,52;0,66
60,39;45,12;49,06;0,33;77,62;43,24;71,18;0,57;72,36;73,06;69,65;0,63;79,71;73,75;74,22;0,63
55,37;35,16;51,35;0,28;78,2;42,82;69,02;0,59;75,99;72,95;72,14;0,66;80,25;76,61;81,72;0,67
57,68;46,32;64,02;0,29;75,98;53,35;80,96;0,57;70,6;66,14;71,94;0,6;75,93;71,96;74,81;0,64
60,96;52,7;54,08;0,25;72,53;44,21;76,56;0,72;76,19;74,95;75,36;0,63;80,51;74,36;76,54;0,63
65,54;35,99;39,85;0,39;82,44;59,64;78,8;0,57;70,1;71,75;76,59;0,57;75,25;74,8;77,68;0,66
53,9;43,84;54,06;0,3;85,21;43,93;58,07;0,79;74,62;69,98;71,97;0,55;79,09;76,27;74,55;0,67
69,57;51,62;53,01;0,31;78,25;66,57;66,59;0,69;75,68;74,58;73,92;0,67;76,53;78,15;70,03;0,72
64,55;33,9;50,86;0,36;70,02;25,95;69,22;0,64;75,72;79,09;81,48;0,65;78,43;75,87;77,43;0,68
52,92;59,69;40,9;0,28;87,95;62,97;58,86;0,65;78,24;69,26;74,39;0,62;78,01;68,76;80,92;0,64
54,5;54,76;53,12;0,32;86,37;55,81;45,37;0,75;73,85;66,55;77,13;0,62;80,88;72,58;74,06;0,67
64,47;52,96;56,45;0,2;77,35;54,78;56,01;0,7;73,07;73,08;67,44;0,62;79,27;78,61;71,02;0,67
70,37;41,97;65,57;0,32;71,81;56,73;45,3;0,75;71,65;70,66;71,48;0,63;77,2;69,95;69,82;0,62
40,01;35,52;56,88;0,3;99,7;51,3;85,59;0,52;80,54;73,08;63,92;0,66;74,49;73,87;80,21;0,65
60,65;41,47;54,24;0,27;70,73;48,12;70,23;0,62;77,83;73,83;72,53;0,68;77,82;72,65;71,21;0,64
66,26;61,75;50,58;0,24;73,95;48,98;75,04;0,66;74,45;69,89;72,2;0,63;77,29;73,38;74,3;0,74
54,54;45,65;38,83;0,36;86,19;47,29;64,94;0,54;73,39;81,98;76,6;0,65;78,25;79,35;77,2;0,73
58,98;46,84;47,68;0,32;66,83;49,65;59,29;0,57;73,88;75,15;71,56;0,66;82,97;78,14;71,91;0,66
63,06;34,1;56,84;0,3;86,99;51,83;60,73;0,58;66,18;73,95;71,42;0,61;75,98;73,95;76,84;0,69
50,19;52,55;53,52;0,31;78,62;45,73;58,91;0,64;78,08;79,95;74,03;0,6;76,99;74,23;77,36;0,63
